{
  "docs": [
    {
      "_id": "5cd96e05de30eff6ebcce7e9",
      "dialog": "Deagol!",
      "movie": "5cd95395de30eff6ebccde5d",
      "character": "5cd99d4bde30eff6ebccfe9e",
      "id": "5cd96e05de30eff6ebcce7e9"
    },
    {
      "_id": "5cd96e05de30eff6ebcce7ea",
      "dialog": "Deagol!",
      "movie": "5cd95395de30eff6ebccde5d",
      "character": "5cd99d4bde30eff6ebccfe9e",
      "id": "5cd96e05de30eff6ebcce7ea"
    },
    {
      "_id": "5cd96e05de30eff6ebcce7eb",
      "dialog": "Deagol!",
      "movie": "5cd95395de30eff6ebccde5d",
      "character": "5cd99d4bde30eff6ebccfe9e",
      "id": "5cd96e05de30eff6ebcce7eb"
    },
    {
      "_id": "5cd96e05de30eff6ebcce7ec",
      "dialog": "Give us that! Deagol my love",
      "movie": "5cd95395de30eff6ebccde5d",
      "character": "5cd99d4bde30eff6ebccfe9e",
      "id": "5cd96e05de30eff6ebcce7ec"
    },
    {
      "_id": "5cd96e05de30eff6ebcce7ed",
      "dialog": "Why?",
      "movie": "5cd95395de30eff6ebccde5d",
      "character": "5cd99d4bde30eff6ebccfca7",
      "id": "5cd96e05de30eff6ebcce7ed"
    },
    {
      "_id": "5cd96e05de30eff6ebcce7ee",
      "dialog": "Because', it's my birthday and I wants it.",
      "movie": "5cd95395de30eff6ebccde5d",
      "character": "5cd99d4bde30eff6ebccfe9e",
      "id": "5cd96e05de30eff6ebcce7ee"
    },
    {
      "_id": "5cd96e05de30eff6ebcce7ef",
      "dialog": "Arrghh!",
      "movie": "5cd95395de30eff6ebccde5d",
      "character": "5cd99d4bde30eff6ebccfca7",
      "id": "5cd96e05de30eff6ebcce7ef"
    },
    {
      "_id": "5cd96e05de30eff6ebcce7f0",
      "dialog": "They cursed us!",
      "movie": "5cd95395de30eff6ebccde5d",
      "character": "5cd99d4bde30eff6ebccfe9e",
      "id": "5cd96e05de30eff6ebcce7f0"
    },
    {
      "_id": "5cd96e05de30eff6ebcce7f1",
      "dialog": "Murderer!",
      "movie": "5cd95395de30eff6ebccde5d",
      "character": "5cd99d4bde30eff6ebccfe9e",
      "id": "5cd96e05de30eff6ebcce7f1"
    },
    {
      "_id": "5cd96e05de30eff6ebcce7f2",
      "dialog": "'Murderer' they called us. They cursed us and drove us away.",
      "movie": "5cd95395de30eff6ebccde5d",
      "character": "5cd99d4bde30eff6ebccfe9e",
      "id": "5cd96e05de30eff6ebcce7f2"
    },
    {
      "_id": "5cd96e05de30eff6ebcce7f3",
      "dialog": "Pull it in! Go on, go on, go on, pull it in!",
      "movie": "5cd95395de30eff6ebccde5d",
      "character": "5cd99d4bde30eff6ebccfe9e",
      "id": "5cd96e05de30eff6ebcce7f3"
    },
    {
      "_id": "5cd96e05de30eff6ebcce7f4",
      "dialog": "Oh Smeagol I've got one! I've got a fish Smeagol, Smeagol!",
      "movie": "5cd95395de30eff6ebccde5d",
      "character": "5cd99d4bde30eff6ebccfca7",
      "id": "5cd96e05de30eff6ebcce7f4"
    },
    {
      "_id": "5cd96e05de30eff6ebcce7f5",
      "dialog": "My precious.",
      "movie": "5cd95395de30eff6ebccde5d",
      "character": "5cd99d4bde30eff6ebccfe9e",
      "id": "5cd96e05de30eff6ebcce7f5"
    },
    {
      "_id": "5cd96e05de30eff6ebcce7f6",
      "dialog": "Gandalf?",
      "movie": "5cd95395de30eff6ebccde5d",
      "character": "5cd99d4bde30eff6ebccfc15",
      "id": "5cd96e05de30eff6ebcce7f6"
    },
    {
      "_id": "5cd96e05de30eff6ebcce7f7",
      "dialog": "Oooohhh!",
      "movie": "5cd95395de30eff6ebccde5d",
      "character": "5cd99d4bde30eff6ebccfc15",
      "id": "5cd96e05de30eff6ebcce7f7"
    },
    {
      "_id": "5cd96e05de30eff6ebcce7f8",
      "dialog": "Frodo!",
      "movie": "5cd95395de30eff6ebccde5d",
      "character": "5cd99d4bde30eff6ebccfc7c",
      "id": "5cd96e05de30eff6ebcce7f8"
    },
    {
      "_id": "5cd96e05de30eff6ebcce7f9",
      "dialog": "Aaaahh!",
      "movie": "5cd95395de30eff6ebccde5d",
      "character": "5cd99d4bde30eff6ebccfd23",
      "id": "5cd96e05de30eff6ebcce7f9"
    },
    {
      "_id": "5cd96e05de30eff6ebcce7fa",
      "dialog": "and cool, so nice for feet, and we only wish to catch a fish, so juicy sweet.",
      "movie": "5cd95395de30eff6ebccde5d",
      "character": "5cd99d4bde30eff6ebccfe9e",
      "id": "5cd96e05de30eff6ebcce7fa"
    },
    {
      "_id": "5cd96e05de30eff6ebcce7fb",
      "dialog": "Gimli!",
      "movie": "5cd95395de30eff6ebccde5d",
      "character": "5cd99d4bde30eff6ebccfc15",
      "id": "5cd96e05de30eff6ebcce7fb"
    },
    {
      "_id": "5cd96e05de30eff6ebcce7fc",
      "dialog": "My precious!",
      "movie": "5cd95395de30eff6ebccde5d",
      "character": "5cd99d4bde30eff6ebccfe9e",
      "id": "5cd96e05de30eff6ebcce7fc"
    }
  ],
  "total": 2384,
  "limit": 20,
  "offset": 0,
  "page": 1,
  "pages": 120
}
